\relax 
\providecommand*\new@tpo@label[2]{}
\catcode `:\active 
\catcode `;\active 
\catcode `!\active 
\catcode `?\active 
\select@language{french}
\@writefile{toc}{\select@language{french}}
\@writefile{lof}{\select@language{french}}
\@writefile{lot}{\select@language{french}}
\@writefile{toc}{\contentsline {section}{\numberline {1}But}{1}}
\@writefile{toc}{\contentsline {section}{\numberline {2}Th\IeC {\'e}orie}{1}}
\newlabel{equation:premiere}{{1}{1}}
\newlabel{equation:seconde}{{2}{1}}
\newlabel{equation:laperso}{{3}{2}}
\newlabel{equation:perso}{{2}{2}}
\@writefile{toc}{\contentsline {section}{\numberline {3}Dispositif exp\IeC {\'e}rimental}{2}}
\@writefile{toc}{\contentsline {section}{\numberline {4}R\IeC {\'e}sultats}{2}}
\@writefile{toc}{\contentsline {subsection}{\numberline {4.1}R\IeC {\'e}sultats bruts}{2}}
\@writefile{lof}{\contentsline {figure}{\numberline {1}{\ignorespaces Rail}}{3}}
\providecommand*\caption@xref[2]{\@setref\relax\@undefined{#1}}
\newlabel{figure:dispos2}{{1}{3}}
\@writefile{lof}{\contentsline {figure}{\numberline {2}{\ignorespaces P\IeC {\'e}riode vs masse}}{3}}
\newlabel{figure:periode_masse}{{2}{3}}
\@writefile{lof}{\contentsline {figure}{\numberline {3}{\ignorespaces P\IeC {\'e}riode vs masse}}{4}}
\newlabel{pic:latex}{{3}{4}}
\@writefile{lot}{\contentsline {table}{\numberline {1}{\ignorespaces Acc\IeC {\'e}l\IeC {\'e}rations}}{4}}
\newlabel{tableau:accelerations}{{1}{4}}
\@writefile{toc}{\contentsline {subsection}{\numberline {4.2}Exemples de calcul}{4}}
\newlabel{tableau:periode-masse}{{2a}{5}}
\newlabel{sub@tableau:periode-masse}{{a}{5}}
\newlabel{tableau:meriode-angle}{{2b}{5}}
\newlabel{sub@tableau:meriode-angle}{{b}{5}}
\newlabel{tableau:periode-longueur}{{2c}{5}}
\newlabel{sub@tableau:periode-longueur}{{c}{5}}
\@writefile{lot}{\contentsline {table}{\numberline {2}{\ignorespaces Un environnement pour de multiples tableaux\relax }}{5}}
\newlabel{tableau:multiples}{{2}{5}}
\@writefile{toc}{\contentsline {section}{\numberline {5}Discussion}{5}}
\@writefile{toc}{\contentsline {subsection}{\numberline {5.1}Pr\IeC {\'e}sentation des r\IeC {\'e}sultats}{5}}
\@writefile{toc}{\contentsline {subsection}{\numberline {5.2}Analyse}{5}}
\@writefile{toc}{\contentsline {subsection}{\numberline {5.3}Probl\IeC {\`e}mes rencontr\IeC {\'e}s}{6}}
\@writefile{toc}{\contentsline {section}{\numberline {6}Conclusion}{6}}
\@writefile{toc}{\contentsline {section}{\numberline {7}Annexes}{7}}
\@writefile{toc}{\contentsline {section}{\numberline {A}\IeC {\'E}quations}{7}}
\newlabel{eq:labelleeq}{{4}{7}}
\newlabel{eq:alignnewton}{{5}{7}}
\newlabel{eq:alignhook}{{6}{7}}
\@writefile{lof}{\contentsline {figure}{\numberline {4}{\ignorespaces Le rail horizontal\relax }}{8}}
\newlabel{figure:annexedispos}{{4}{8}}
\@writefile{toc}{\contentsline {section}{\numberline {B}Sch\IeC {\'e}ma}{8}}
\newlabel{annexe:schema}{{B}{8}}
\@writefile{lof}{\contentsline {figure}{\numberline {5}{\ignorespaces Export en eps-latex\relax }}{9}}
\newlabel{figure:exporteps}{{5}{9}}
\citation{EinsteinPR1935}
\@writefile{lof}{\contentsline {figure}{\numberline {6}{\ignorespaces Rail}}{10}}
\newlabel{figure:annexedispos2}{{6}{10}}
\@writefile{lof}{\contentsline {figure}{\numberline {7}{\ignorespaces Rail}}{10}}
\newlabel{figure:annexedispos3}{{7}{10}}
\@writefile{toc}{\contentsline {section}{\numberline {C}Notes, r\IeC {\'e}f\IeC {\'e}rences et flottants}{10}}
\@writefile{toc}{\contentsline {subsection}{\numberline {C.1}Notes}{10}}
\@writefile{toc}{\contentsline {subsection}{\numberline {C.2}R\IeC {\'e}f\IeC {\'e}rences}{10}}
\bibcite{EinsteinPR1935}{1}
\@writefile{toc}{\contentsline {subsection}{\numberline {C.3}Placement des flottants}{11}}
\@writefile{toc}{\contentsline {section}{\numberline {D}Gnuplot}{11}}
\newlabel{annexe:gnuplot}{{D}{11}}
\@writefile{lot}{\contentsline {table}{\numberline {3}{\ignorespaces Les donn\IeC {\'e}e s\IeC {\'e}par\IeC {\'e}es par des tabulations\relax }}{12}}
\newlabel{table:donnees}{{3}{12}}
\@writefile{lof}{\contentsline {figure}{\numberline {8}{\ignorespaces Le titre du premier graphe\relax }}{13}}
\newlabel{figure:premiergraphe}{{8}{13}}
\@writefile{lof}{\contentsline {figure}{\numberline {9}{\ignorespaces Le titre du second graphe\relax }}{15}}
\newlabel{figure:secondgraphe}{{9}{15}}
\global\csname @altsecnumformattrue\endcsname
