%!PS-Adobe-3.0 EPSF-3.0
%%Creator: cairo 1.14.8 (http://cairographics.org)
%%CreationDate: Fri May 10 11:35:02 2019
%%Pages: 1
%%DocumentData: Clean7Bit
%%LanguageLevel: 2
%%BoundingBox: 0 -1 148 62
%%EndComments
%%BeginProlog
save
50 dict begin
/q { gsave } bind def
/Q { grestore } bind def
/cm { 6 array astore concat } bind def
/w { setlinewidth } bind def
/J { setlinecap } bind def
/j { setlinejoin } bind def
/M { setmiterlimit } bind def
/d { setdash } bind def
/m { moveto } bind def
/l { lineto } bind def
/c { curveto } bind def
/h { closepath } bind def
/re { exch dup neg 3 1 roll 5 3 roll moveto 0 rlineto
      0 exch rlineto 0 rlineto closepath } bind def
/S { stroke } bind def
/f { fill } bind def
/f* { eofill } bind def
/n { newpath } bind def
/W { clip } bind def
/W* { eoclip } bind def
/BT { } bind def
/ET { } bind def
/pdfmark where { pop globaldict /?pdfmark /exec load put }
    { globaldict begin /?pdfmark /pop load def /pdfmark
    /cleartomark load def end } ifelse
/BDC { mark 3 1 roll /BDC pdfmark } bind def
/EMC { mark /EMC pdfmark } bind def
/cairo_store_point { /cairo_point_y exch def /cairo_point_x exch def } def
/Tj { show currentpoint cairo_store_point } bind def
/TJ {
  {
    dup
    type /stringtype eq
    { show } { -0.001 mul 0 cairo_font_matrix dtransform rmoveto } ifelse
  } forall
  currentpoint cairo_store_point
} bind def
/cairo_selectfont { cairo_font_matrix aload pop pop pop 0 0 6 array astore
    cairo_font exch selectfont cairo_point_x cairo_point_y moveto } bind def
/Tf { pop /cairo_font exch def /cairo_font_matrix where
      { pop cairo_selectfont } if } bind def
/Td { matrix translate cairo_font_matrix matrix concatmatrix dup
      /cairo_font_matrix exch def dup 4 get exch 5 get cairo_store_point
      /cairo_font where { pop cairo_selectfont } if } bind def
/Tm { 2 copy 8 2 roll 6 array astore /cairo_font_matrix exch def
      cairo_store_point /cairo_font where { pop cairo_selectfont } if } bind def
/g { setgray } bind def
/rg { setrgbcolor } bind def
/d1 { setcachedevice } bind def
%%EndProlog
%%BeginSetup
%%EndSetup
%%Page: 1 1
%%BeginPageSetup
%%PageBoundingBox: 0 -1 148 62
%%EndPageSetup
q 0 -1 148 63 rectclip q
1 g
0 11.235 147.895 -5.441 re f*
0.0117647 g
0.283465 w
1 J
2 j
[] 0.0 d
10 M q 1 0 0 1 0 62.305279 cm
1.422 -51.07 144.934 -11.094 re S Q
1 g
51.398 32.708 3.438 -15.605 re f*
0.0117647 g
q 1 0 0 1 0 62.305279 cm
51.398 -29.598 3.438 -15.605 re S Q
1 g
52.543 17.102 1.289 -5.867 re f*
0.0117647 g
q 1 0 0 1 0 62.305279 cm
52.543 -45.203 1.289 -5.867 re S Q
0.505882 0.494118 0.494118 rg
52.215 19.208 m 52.23 19.708 52.648 20.102 53.145 20.087 c 53.645 20.067
 54.035 19.649 54.02 19.149 c 54 18.649 53.586 18.258 53.09 18.274 c 52.602
 18.29 52.215 18.688 52.215 19.18 c f*
0.0117647 g
0.0554851 w
q 1 0 0 -0.902843 0 62.305279 cm
52.215 47.736 m 52.23 47.182 52.648 46.745 53.145 46.766 c 53.645 46.784
 54.035 47.247 54.02 47.8 c 54 48.354 53.586 48.787 53.09 48.77 c 52.602
 48.752 52.215 48.311 52.215 47.766 c S Q
1 g
107.664 32.708 3.438 -15.605 re f*
0.0117647 g
0.283465 w
q 1 0 0 1 0 62.305279 cm
107.664 -29.598 3.438 -15.605 re S Q
1 g
108.809 17.102 1.289 -5.867 re f*
0.0117647 g
q 1 0 0 1 0 62.305279 cm
108.809 -45.203 1.289 -5.867 re S Q
0.505882 0.494118 0.494118 rg
108.48 19.208 m 108.5 19.708 108.914 20.102 109.414 20.087 c 109.91 20.067
 110.301 19.649 110.285 19.149 c 110.27 18.649 109.852 18.258 109.355 18.274
 c 108.867 18.29 108.48 18.688 108.48 19.18 c f*
0.0117647 g
0.0554851 w
q 1 0 0 -0.902843 0 62.305279 cm
108.48 47.736 m 108.496 47.182 108.914 46.745 109.414 46.766 c 109.91 46.784
 110.301 47.247 110.285 47.8 c 110.27 48.354 109.852 48.787 109.355 48.77
 c 108.867 48.752 108.48 48.311 108.48 47.766 c S Q
0.505882 0.494118 0.494118 rg
21.762 17.102 14.316 -3.434 re f*
0.0117647 g
0.226772 w
1 j
q 1 0 0 1 0 62.305279 cm
21.762 -45.203 14.316 -3.434 re S Q
0.505882 0.494118 0.494118 rg
23.051 12.629 m 23.07 13.219 23.566 13.684 24.16 13.665 c 24.75 13.649 
25.215 13.153 25.199 12.559 c 25.18 11.965 24.684 11.501 24.09 11.52 c 23.512
 11.54 23.051 12.012 23.051 12.594 c f*
0.0117647 g
q 1 0 0 1 0 62.305279 cm
23.051 -49.676 m 23.07 -49.086 23.566 -48.621 24.16 -48.641 c 24.75 -48.656
 25.215 -49.152 25.199 -49.746 c 25.18 -50.34 24.684 -50.805 24.09 -50.785
 c 23.512 -50.766 23.051 -50.293 23.051 -49.711 c S Q
0.505882 0.494118 0.494118 rg
32.5 12.629 m 32.52 13.219 33.016 13.684 33.609 13.665 c 34.199 13.649 
34.664 13.153 34.648 12.559 c 34.629 11.965 34.133 11.501 33.539 11.52 c
 32.961 11.54 32.5 12.012 32.5 12.594 c f*
0.0117647 g
q 1 0 0 1 0 62.305279 cm
32.5 -49.676 m 32.52 -49.086 33.016 -48.621 33.609 -48.641 c 34.199 -48.656
 34.664 -49.152 34.648 -49.746 c 34.629 -50.34 34.133 -50.805 33.539 -50.785
 c 32.961 -50.766 32.5 -50.293 32.5 -49.711 c S Q
0 g
q 1 0 0 1 0 62.305279 cm
23.336 -40.766 11.023 -4.293 re S Q
q 1 0 0 1 0 62.305279 cm
74.594 -1.176 13.172 -17.465 re S Q
q 1 0 0 1 0 62.305279 cm
76.238 -3.465 9.879 -5.156 re S Q
0.283465 w
0 J
0 j
q 1 0 0 1 0 62.305279 cm
74.449 -16.715 m 74.449 -16.715 53.117 -15.277 53.117 -29.453 c S Q
q 1 0 0 1 0 62.305279 cm
87.906 -16.555 m 87.906 -16.555 109.238 -15.098 109.238 -29.453 c S Q
q 1 0 0 1 0 62.305279 cm
25.293 -40.793 m 25.301 -43.391 l S Q
q 1 0 0 1 0 62.305279 cm
32.398 -40.801 m 32.406 -43.402 l S Q
q 1 0 0 1 0 62.305279 cm
28.844 -40.801 m 28.855 -43.402 l S Q
0.276245 w
q 1 0 0 1 0 62.305279 cm
27.066 -40.797 m 27.082 -42.199 l S Q
q 1 0 0 1 0 62.305279 cm
30.617 -40.797 m 30.633 -42.199 l S Q
0.283465 w
1 J
1 j
q 1 0 0 1 0 62.305279 cm
1.371 -45.609 7.621 -3.25 re S Q
0.286472 w
q 1 0 0 1 0 62.305279 cm
2.309 -48.871 5.805 -2.203 re S Q
0.226772 w
[ 0.680315 0.680315] 0 d
q 1 0 0 1 0 62.305279 cm
4.199 -46.617 8.105 -1.113 re S Q
0.277443 w
[] 0.0 d
q 1 0 0 1 0 62.305279 cm
8.973 -46.637 3.34 -1.113 re S Q
0.283465 w
0 J
0 j
q 1 0 0 1 0 62.305279 cm
44.105 -51.23 m 44.105 -54.605 l S Q
q 1 0 0 1 0 62.305279 cm
53.422 -51.23 m 53.422 -54.605 l S Q
q 1 0 0 1 0 62.305279 cm
127.945 -51.23 m 127.945 -54.605 l S Q
q 1 0 0 1 0 62.305279 cm
62.734 -51.23 m 62.734 -54.605 l S Q
q 1 0 0 1 0 62.305279 cm
72.051 -51.23 m 72.051 -54.605 l S Q
q 1 0 0 1 0 62.305279 cm
81.367 -51.23 m 81.367 -54.605 l S Q
q 1 0 0 1 0 62.305279 cm
90.684 -51.23 m 90.684 -54.605 l S Q
q 1 0 0 1 0 62.305279 cm
100 -51.23 m 100 -54.605 l S Q
q 1 0 0 1 0 62.305279 cm
109.312 -51.23 m 109.312 -54.605 l S Q
q 1 0 0 1 0 62.305279 cm
118.629 -51.23 m 118.629 -54.605 l S Q
0.204738 w
q 1 0 0 1 0 62.305279 cm
48.762 -51.191 m 48.762 -52.953 l S Q
q 1 0 0 1 0 62.305279 cm
58.078 -51.191 m 58.078 -52.953 l S Q
q 1 0 0 1 0 62.305279 cm
67.395 -51.191 m 67.395 -52.953 l S Q
q 1 0 0 1 0 62.305279 cm
76.711 -51.191 m 76.711 -52.953 l S Q
q 1 0 0 1 0 62.305279 cm
86.027 -51.191 m 86.027 -52.953 l S Q
q 1 0 0 1 0 62.305279 cm
95.34 -51.191 m 95.34 -52.953 l S Q
q 1 0 0 1 0 62.305279 cm
104.656 -51.191 m 104.656 -52.953 l S Q
q 1 0 0 1 0 62.305279 cm
113.973 -51.191 m 113.973 -52.953 l S Q
q 1 0 0 1 0 62.305279 cm
123.289 -51.191 m 123.289 -52.953 l S Q
0.375 w
4 M q 1 0 0 1 0 62.305279 cm
56.086 -42.98 m 106.391 -43.098 l S Q
57.586 19.325 m 58.336 18.571 l 55.711 19.329 l 58.336 20.071 l h
57.586 19.325 m f*
0.199999 w
q 1 -0.0023593 0.0023593 1 0 62.305279 cm
57.687 -42.844 m 58.439 -43.597 l 55.812 -42.845 l 58.435 -42.097 l h
57.687 -42.844 m S Q
104.891 19.212 m 104.145 19.962 l 106.766 19.208 l 104.141 18.462 l h
104.891 19.212 m f*
q -1 0.0023593 -0.0023593 -1 0 62.305279 cm
-104.992 42.846 m -104.244 42.098 l -106.867 42.846 l -104.243 43.598 l
 h
-104.992 42.846 m S Q
Q Q
showpage
%%Trailer
end restore
%%EOF
